{
  "request": {
    "method": "GET",
    "url": "/nobc-api/account-service/v1/clients/0000002/operations?productType=CC&productId=DAV&scheduled=false&page=1&size=20"
  },
  "response": {
    "status": 200,
    "headers": {
      "Content-Type": "application/json"
    },
    "jsonBody": {
      "_links": {
        "prev": {
          "href": "http://server:port/nobc-api/account-service/v1/clients/{clientId}/accounts/currents/{accountId}/operationspage=1&size=20"
        },
        "next": {
          "href": "http://server:port/nobc-api/account-service/v1/clients/{clientId}/accounts/currents/{accountId}/operationspage=3&size=20"
        }
      },
      "page": {
        "size": 20,
        "totalElements": 488,
        "totalPages": 25,
        "number": 1
      },
      "content": {
        "operations": [
          {
            "id": "",
            "status": "",
            "accountId": "",
            "creditcardId": "",
            "instructedAmount": 0,
            "instructedCurrency": "EUR",
            "bookingDateTime": "23/09/2016",
            "informationFirst": "GOOGLE *Google Storage",
            "informationSecond": "g.co/payhelp#",
            "transactionAmount": "-2,19 EUR",
            "transactionCurrency": "EUR",
            "creditDebitIndicator": "DBIT"
          },
          {
            "id": "",
            "status": "",
            "accountId": "",
            "creditcardId": "",
            "instructedAmount": 0,
            "instructedCurrency": "EUR",
            "bookingDateTime": "05/09/2016",
            "informationFirst": "ESCOTA",
            "informationSecond": "06211",
            "transactionAmount": "-2,00 EUR",
            "transactionCurrency": "EUR",
            "creditDebitIndicator": "DBIT"
          },
          {
            "id": "",
            "status": "",
            "accountId": "",
            "creditcardId": "",
            "instructedAmount": 0,
            "instructedCurrency": "EUR",
            "bookingDateTime": "30/08/2016",
            "informationFirst": "FNAC",
            "informationSecond": "TOULON",
            "transactionAmount": "-130,14 EUR",
            "transactionCurrency": "EUR",
            "creditDebitIndicator": "DBIT"
          },
          {
            "id": "",
            "status": "",
            "accountId": "",
            "creditcardId": "",
            "instructedAmount": 0,
            "instructedCurrency": "EUR",
            "bookingDateTime": "30/08/2016",
            "informationFirst": "MAISON BORGHESE",
            "informationSecond": "TOULON",
            "transactionAmount": "-71,73 EUR",
            "transactionCurrency": "EUR",
            "creditDebitIndicator": "DBIT"
          },
          {
            "id": "",
            "status": "",
            "accountId": "",
            "creditcardId": "",
            "instructedAmount": 0,
            "instructedCurrency": "EUR",
            "bookingDateTime": "30/08/2016",
            "informationFirst": "LAFAY TCC420 AUT",
            "informationSecond": "TOULON",
            "transactionAmount": "-6,20 EUR",
            "transactionCurrency": "EUR",
            "creditDebitIndicator": "DBIT"
          },
          {
            "id": "",
            "status": "",
            "accountId": "",
            "creditcardId": "",
            "instructedAmount": 0,
            "instructedCurrency": "EUR",
            "bookingDateTime": "29/08/2016",
            "informationFirst": "LE CABANON DU V",
            "informationSecond": "PROPRIANO",
            "transactionAmount": "-75,10 EUR",
            "transactionCurrency": "EUR",
            "creditDebitIndicator": "DBIT"
          },
          {
            "id": "",
            "status": "",
            "accountId": "",
            "creditcardId": "",
            "instructedAmount": 0,
            "instructedCurrency": "EUR",
            "bookingDateTime": "29/08/2016",
            "informationFirst": "MEGA ANDREA",
            "informationSecond": "BASTIA",
            "transactionAmount": "-68,40 EUR",
            "transactionCurrency": "EUR",
            "creditDebitIndicator": "DBIT"
          },
          {
            "id": "",
            "status": "",
            "accountId": "",
            "creditcardId": "",
            "instructedAmount": 0,
            "instructedCurrency": "EUR",
            "bookingDateTime": "29/08/2016",
            "informationFirst": "PARKING PORT AUT",
            "informationSecond": "PROPRIANO",
            "transactionAmount": "-2,00 EUR",
            "transactionCurrency": "EUR",
            "creditDebitIndicator": "DBIT"
          },
          {
            "id": "",
            "status": "",
            "accountId": "",
            "creditcardId": "",
            "instructedAmount": 0,
            "instructedCurrency": "EUR",
            "bookingDateTime": "26/08/2016",
            "informationFirst": "MAISON SUR L IL",
            "informationSecond": "PORTO VECCHIO",
            "transactionAmount": "-470,00 EUR",
            "transactionCurrency": "EUR",
            "creditDebitIndicator": "DBIT"
          },
          {
            "id": "",
            "status": "",
            "accountId": "",
            "creditcardId": "",
            "instructedAmount": 0,
            "instructedCurrency": "EUR",
            "bookingDateTime": "26/08/2016",
            "informationFirst": "HOTEL CALA ROSSA",
            "informationSecond": "LECCI",
            "transactionAmount": "-237,50 EUR",
            "transactionCurrency": "EUR",
            "creditDebitIndicator": "DBIT"
          },
          {
            "id": "",
            "status": "",
            "accountId": "",
            "creditcardId": "",
            "instructedAmount": 0,
            "instructedCurrency": "EUR",
            "bookingDateTime": "26/08/2016",
            "informationFirst": "MICELOSA",
            "informationSecond": "PORTO VECCHIO",
            "transactionAmount": "-89,00 EUR",
            "transactionCurrency": "EUR",
            "creditDebitIndicator": "DBIT"
          },
          {
            "id": "",
            "status": "",
            "accountId": "",
            "creditcardId": "",
            "instructedAmount": 0,
            "instructedCurrency": "EUR",
            "bookingDateTime": "26/08/2016",
            "informationFirst": "HORODATEURS POVO",
            "informationSecond": "PORTO VECCHIO",
            "transactionAmount": "-5,00 EUR",
            "transactionCurrency": "EUR",
            "creditDebitIndicator": "DBIT"
          },
          {
            "id": "",
            "status": "",
            "accountId": "",
            "creditcardId": "",
            "instructedAmount": 0,
            "instructedCurrency": "EUR",
            "bookingDateTime": "25/08/2016",
            "informationFirst": "VITO",
            "informationSecond": "DAC POVO",
            "transactionAmount": "-48,68 EUR",
            "transactionCurrency": "EUR",
            "creditDebitIndicator": "DBIT"
          },
          {
            "id": "",
            "status": "",
            "accountId": "",
            "creditcardId": "",
            "instructedAmount": 0,
            "instructedCurrency": "EUR",
            "bookingDateTime": "24/08/2016",
            "informationFirst": "GASPARD MELEES",
            "informationSecond": "HYERES",
            "transactionAmount": "-490,00 EUR",
            "transactionCurrency": "EUR",
            "creditDebitIndicator": "DBIT"
          },
          {
            "id": "",
            "status": "",
            "accountId": "",
            "creditcardId": "",
            "instructedAmount": 0,
            "instructedCurrency": "EUR",
            "bookingDateTime": "24/08/2016",
            "informationFirst": "CARBURANT TPE",
            "informationSecond": "HYERES",
            "transactionAmount": "-100,86 EUR",
            "transactionCurrency": "EUR",
            "creditDebitIndicator": "DBIT"
          },
          {
            "id": "",
            "status": "",
            "accountId": "",
            "creditcardId": "",
            "instructedAmount": 0,
            "instructedCurrency": "EUR",
            "bookingDateTime": "24/08/2016",
            "informationFirst": "MEGA EXPRESS",
            "informationSecond": "BASTIA",
            "transactionAmount": "-61,20 EUR",
            "transactionCurrency": "EUR",
            "creditDebitIndicator": "DBIT"
          },
          {
            "id": "",
            "status": "",
            "accountId": "",
            "creditcardId": "",
            "instructedAmount": 0,
            "instructedCurrency": "EUR",
            "bookingDateTime": "23/08/2016",
            "informationFirst": "LA BODEGUITA",
            "informationSecond": "LA GARDE",
            "transactionAmount": "-35,20 EUR",
            "transactionCurrency": "EUR",
            "creditDebitIndicator": "DBIT"
          },
          {
            "id": "",
            "status": "",
            "accountId": "",
            "creditcardId": "",
            "instructedAmount": 0,
            "instructedCurrency": "EUR",
            "bookingDateTime": "23/08/2016",
            "informationFirst": "JUST HAIR",
            "informationSecond": "LA GARDE",
            "transactionAmount": "-23,00 EUR",
            "transactionCurrency": "EUR",
            "creditDebitIndicator": "DBIT"
          },
          {
            "id": "",
            "status": "",
            "accountId": "",
            "creditcardId": "",
            "instructedAmount": 0,
            "instructedCurrency": "EUR",
            "bookingDateTime": "23/08/2016",
            "informationFirst": "PROVIDANGE",
            "informationSecond": "LA VALETTE DU VAR",
            "transactionAmount": "-8,00 EUR",
            "transactionCurrency": "EUR",
            "creditDebitIndicator": "DBIT"
          },
          {
            "id": "",
            "status": "",
            "accountId": "",
            "creditcardId": "",
            "instructedAmount": 0,
            "instructedCurrency": "EUR",
            "bookingDateTime": "23/08/2016",
            "informationFirst": "GOOGLE *Google Storage",
            "informationSecond": "g.co/payhelp#",
            "transactionAmount": "-2,16 EUR",
            "transactionCurrency": "EUR",
            "creditDebitIndicator": "DBIT"
          },
          {
            "id": "",
            "status": "",
            "accountId": "",
            "creditcardId": "",
            "instructedAmount": 0,
            "instructedCurrency": "EUR",
            "bookingDateTime": "20/08/2016",
            "informationFirst": "FNAC",
            "informationSecond": "TOULON",
            "transactionAmount": "-3 109,90 EUR",
            "transactionCurrency": "EUR",
            "creditDebitIndicator": "DBIT"
          },
          {
            "id": "",
            "status": "",
            "accountId": "",
            "creditcardId": "",
            "instructedAmount": 0,
            "instructedCurrency": "EUR",
            "bookingDateTime": "20/08/2016",
            "informationFirst": "COTE COUR COTE GOUR",
            "informationSecond": "HYERES",
            "transactionAmount": "-24,00 EUR",
            "transactionCurrency": "EUR",
            "creditDebitIndicator": "DBIT"
          },
          {
            "id": "",
            "status": "",
            "accountId": "",
            "creditcardId": "",
            "instructedAmount": 0,
            "instructedCurrency": "EUR",
            "bookingDateTime": "20/08/2016",
            "informationFirst": "LAFAY TCC420 AUT",
            "informationSecond": "TOULON",
            "transactionAmount": "-1,20 EUR",
            "transactionCurrency": "EUR",
            "creditDebitIndicator": "DBIT"
          },
          {
            "id": "",
            "status": "",
            "accountId": "",
            "creditcardId": "",
            "instructedAmount": 0,
            "instructedCurrency": "EUR",
            "bookingDateTime": "19/08/2016",
            "informationFirst": "SCUBAZAR",
            "informationSecond": "HYERES",
            "transactionAmount": "-128,00 EUR",
            "transactionCurrency": "EUR",
            "creditDebitIndicator": "DBIT"
          },
          {
            "id": "",
            "status": "",
            "accountId": "",
            "creditcardId": "",
            "instructedAmount": 0,
            "instructedCurrency": "EUR",
            "bookingDateTime": "19/08/2016",
            "informationFirst": "INDIGO0830009",
            "informationSecond": "TOULON",
            "transactionAmount": "-0,60 EUR",
            "transactionCurrency": "EUR",
            "creditDebitIndicator": "DBIT"
          },
          {
            "id": "",
            "status": "",
            "accountId": "",
            "creditcardId": "",
            "instructedAmount": 0,
            "instructedCurrency": "EUR",
            "bookingDateTime": "17/08/2016",
            "informationFirst": "LA BODEGUITA",
            "informationSecond": "LA GARDE",
            "transactionAmount": "-191,10 EUR",
            "transactionCurrency": "EUR",
            "creditDebitIndicator": "DBIT"
          },
          {
            "id": "",
            "status": "",
            "accountId": "",
            "creditcardId": "",
            "instructedAmount": 0,
            "instructedCurrency": "EUR",
            "bookingDateTime": "17/08/2016",
            "informationFirst": "PRINTEMPS",
            "informationSecond": "LA VALETTE DU VAR",
            "transactionAmount": "-99,90 EUR",
            "transactionCurrency": "EUR",
            "creditDebitIndicator": "DBIT"
          },
          {
            "id": "",
            "status": "",
            "accountId": "",
            "creditcardId": "",
            "instructedAmount": 0,
            "instructedCurrency": "EUR",
            "bookingDateTime": "17/08/2016",
            "informationFirst": "LEROY MERLIN",
            "informationSecond": "LA VALETTE DU VAR",
            "transactionAmount": "-86,80 EUR",
            "transactionCurrency": "EUR",
            "creditDebitIndicator": "DBIT"
          },
          {
            "id": "",
            "status": "",
            "accountId": "",
            "creditcardId": "",
            "instructedAmount": 0,
            "instructedCurrency": "EUR",
            "bookingDateTime": "17/08/2016",
            "informationFirst": "CASINOCARBSS887",
            "informationSecond": "CARQUEIRANNE",
            "transactionAmount": "-63,76 EUR",
            "transactionCurrency": "EUR",
            "creditDebitIndicator": "DBIT"
          },
          {
            "id": "",
            "status": "",
            "accountId": "",
            "creditcardId": "",
            "instructedAmount": 0,
            "instructedCurrency": "EUR",
            "bookingDateTime": "17/08/2016",
            "informationFirst": "AGRIMAT",
            "informationSecond": "HYERES",
            "transactionAmount": "-60,06 EUR",
            "transactionCurrency": "EUR",
            "creditDebitIndicator": "DBIT"
          },
          {
            "id": "",
            "status": "",
            "accountId": "",
            "creditcardId": "",
            "instructedAmount": 0,
            "instructedCurrency": "EUR",
            "bookingDateTime": "16/08/2016",
            "informationFirst": "MR BRICOLAGE",
            "informationSecond": "LE PRADET",
            "transactionAmount": "-19,90 EUR",
            "transactionCurrency": "EUR",
            "creditDebitIndicator": "DBIT"
          },
          {
            "id": "",
            "status": "",
            "accountId": "",
            "creditcardId": "",
            "instructedAmount": 0,
            "instructedCurrency": "EUR",
            "bookingDateTime": "15/08/2016",
            "informationFirst": "ESSO LA BIGUE",
            "informationSecond": "LA VALETTE DU VAR",
            "transactionAmount": "-27,19 EUR",
            "transactionCurrency": "EUR",
            "creditDebitIndicator": "DBIT"
          },
          {
            "id": "",
            "status": "",
            "accountId": "",
            "creditcardId": "",
            "instructedAmount": 0,
            "instructedCurrency": "EUR",
            "bookingDateTime": "15/08/2016",
            "informationFirst": "INDIGO0830009",
            "informationSecond": "TOULON",
            "transactionAmount": "-1,20 EUR",
            "transactionCurrency": "EUR",
            "creditDebitIndicator": "DBIT"
          },
          {
            "id": "",
            "status": "",
            "accountId": "",
            "creditcardId": "",
            "instructedAmount": 0,
            "instructedCurrency": "EUR",
            "bookingDateTime": "13/08/2016",
            "informationFirst": "LE CELTIQUE",
            "informationSecond": "HYERES",
            "transactionAmount": "-140,10 EUR",
            "transactionCurrency": "EUR",
            "creditDebitIndicator": "DBIT"
          },
          {
            "id": "",
            "status": "",
            "accountId": "",
            "creditcardId": "",
            "instructedAmount": 0,
            "instructedCurrency": "EUR",
            "bookingDateTime": "13/08/2016",
            "informationFirst": "PHARMA PORTALET",
            "informationSecond": "HYERES",
            "transactionAmount": "-132,60 EUR",
            "transactionCurrency": "EUR",
            "creditDebitIndicator": "DBIT"
          },
          {
            "id": "",
            "status": "",
            "accountId": "",
            "creditcardId": "",
            "instructedAmount": 0,
            "instructedCurrency": "EUR",
            "bookingDateTime": "13/08/2016",
            "informationFirst": "CARREFOUR CITY",
            "informationSecond": "HYERES",
            "transactionAmount": "-26,68 EUR",
            "transactionCurrency": "EUR",
            "creditDebitIndicator": "DBIT"
          },
          {
            "id": "",
            "status": "",
            "accountId": "",
            "creditcardId": "",
            "instructedAmount": 0,
            "instructedCurrency": "EUR",
            "bookingDateTime": "13/08/2016",
            "informationFirst": "LA MIE CALINE",
            "informationSecond": "HYERES",
            "transactionAmount": "-17,70 EUR",
            "transactionCurrency": "EUR",
            "creditDebitIndicator": "DBIT"
          },
          {
            "id": "",
            "status": "",
            "accountId": "",
            "creditcardId": "",
            "instructedAmount": 0,
            "instructedCurrency": "EUR",
            "bookingDateTime": "13/08/2016",
            "informationFirst": "INDIGO HYERES",
            "informationSecond": "000000830101/",
            "transactionAmount": "-1,80 EUR",
            "transactionCurrency": "EUR",
            "creditDebitIndicator": "DBIT"
          },
          {
            "id": "",
            "status": "",
            "accountId": "",
            "creditcardId": "",
            "instructedAmount": 0,
            "instructedCurrency": "EUR",
            "bookingDateTime": "12/08/2016",
            "informationFirst": "MR BRICOLAGE",
            "informationSecond": "LE PRADET",
            "transactionAmount": "-175,72 EUR",
            "transactionCurrency": "EUR",
            "creditDebitIndicator": "DBIT"
          },
          {
            "id": "",
            "status": "",
            "accountId": "",
            "creditcardId": "",
            "instructedAmount": 0,
            "instructedCurrency": "EUR",
            "bookingDateTime": "12/08/2016",
            "informationFirst": "ROMEO&JULIETTE",
            "informationSecond": "CARQUEIRANNE",
            "transactionAmount": "-50,00 EUR",
            "transactionCurrency": "EUR",
            "creditDebitIndicator": "DBIT"
          }
        ]
      }
    }
  }
}