{
  "request": {
    "method": "GET",
    "url": "/clients/0000002/operations?productType=COMPTE%20A%20VUE&productId=DAV&scheduled=false&page=1&size=20"
  },
  "response": {
    "status": 200,
    "headers": {
      "Content-Type": "application/json"
    },
    "jsonBody": {
      "_links": {
        "prev": {
          "href": "http://server:port/nobc-api/account-service/v1/clients/{clientId}/accounts/currents/{accountId}/operationspage=1&size=20"
        },
        "next": {
          "href": "http://server:port/nobc-api/account-service/v1/clients/{clientId}/accounts/currents/{accountId}/operationspage=3&size=20"
        }
      },
      "page": {
        "size": 20,
        "totalElements": 488,
        "totalPages": 25,
        "number": 1
      },
      "content": {
        "operations": [
          {
            "id": "",
            "status": "",
            "accountId": "",
            "creditcardId": "",
            "bookingDateTime": "2016-09-19T10:47:13.838Z",
            "informationFirst": "RET DAB CB 18-09",
            "informationSecond": "497955------7956 PARIS ECOLE MILITAIRE ",
            "instructedAmount": 0,
            "instructedCurrency": "EUR",
            "transactionAmount": 200.00,
            "transactionCurrency": "EUR",
            "creditDebitIndicator": "DBIT"
          },
          {
            "id": "",
            "status": "",
            "accountId": "",
            "creditcardId": "",
            "bookingDateTime": "2016-09-15T13:47:13.838Z",
            "informationFirst": "CB COTISATION CARTE",
            "informationSecond": "0916 06847714 20950228 5259020 4 SILLARD BENOIT CFCA MOBILE 0916 06847714 20950228 52590204 0916 06847714 20950228 525902 --100192--1625010305853131300073049EUR2000000000012000000000000000 PAC475765/161277446 RCUR FR7630788001002015807000178 ",
            "instructedAmount": 0,
            "instructedCurrency": "EUR",
            "transactionAmount": 12.00,
            "transactionCurrency": "EUR",
            "creditDebitIndicator": "DBIT"
          },
          {
            "id": "",
            "status": "",
            "accountId": "",
            "creditcardId": "",
            "bookingDateTime": "2016-09-07T13:47:13.838Z",
            "informationFirst": "CB COTISATION CARTE",
            "informationSecond": "497955------7956",
            "instructedAmount": 0,
            "instructedCurrency": "EUR",
            "transactionAmount": 360.00,
            "transactionCurrency": "EUR",
            "creditDebitIndicator": "DBIT"
          },
          {
            "id": "",
            "status": "",
            "accountId": "",
            "creditcardId": "",
            "bookingDateTime": "2016-09-06T16:27:13.838Z",
            "informationFirst": "RET DAB CB 05-09",
            "informationSecond": "497955------7956 ISLE SUR SORGUE EXT",
            "instructedAmount": 0,
            "instructedCurrency": "EUR",
            "transactionAmount": 360.00,
            "transactionCurrency": "EUR",
            "creditDebitIndicator": "DBIT"
          }
        ]
      }
    }
  }
}