{
  "request": {
    "method": "GET",
    "urlPath": "/nobc-api/account-service/v1/clients/8800001/operations",
    "queryParameters": {
      "productType": {
        "equalTo": "DAV"
      },
      "productId": {
        "equalTo": "00000000001"
      },
      "page": {
        "equalTo": "1"
      },
      "size": {
        "equalTo": "20"
      }
    }
  },
  "response": {
    "status": 200,
    "headers": {
      "Content-Type": "application/json"
    },
    "jsonBody": {
      "_links": {
        "next": "/nobc-api/account-service/v1/clients/8800001/operations?productType=DAV&productId=00000000001&page=2&size=20"
      },
      "page": {
        "size": 20,
        "totalElements": 21,
        "totalPages": 2,
        "number": 1
      },
      "content": [
        {
          "id": "1234",
          "accountId": "FR7630788001002504780000351",
          "bookingDateTime": "2016-10-31T10:01:40+0000",
          "transactionAmount": 20.00,
          "transactionCurrency": "EUR",
          "creditDebitIndicator": "DBIT",
          "informationFirst": "VIR SEPA MME EVELYNE REVOL    ",
          "informationSecond": "VOTRE ABONNEMENT FIXE: 04XXXXX\n875 (FACTURE: XXXXX8756H5) - P\nORANGE\nVOTRE ABONNEMENT FIXE: 04XXXXX875 (FACTURE: XXXXX8756H5) - P\n494311875 943118756H583E\n03640N2201629393900827\nEUR2000000000096000000000000000\nM0042983576  RCUR\nF\n7630788001000876571000171"
        }
      ]
    }
  }
}