{
  "request": {
    "method": "GET",
    "urlPath": "/nobc-api/account-service/v1/clients/8800001/operations",
    "queryParameters": {
      "productType": {
        "equalTo": "CC"
      },
      "productId": {
        "equalTo": "511"
      },
      "page": {
        "equalTo": "1"
      },
      "size": {
        "equalTo": "20"
      }
    }
  },
  "response": {
    "status": 200,
    "headers": {
      "Content-Type": "application/json"
    },
    "jsonBody": {
      "_links": {
        "next": "/nobc-api/account-service/v1/clients/8800001/operations?productType=CC&productId=511&page=2&size=20"
      },
      "page": {
        "size": 20,
        "totalElements": 21,
        "totalPages": 2,
        "number": 1
      },
      "content": [
        {
          "id": "511",
          "accountId": "FR7630788001002504780000351",
          "creditcardId": "1002504780000351",
          "creditcardAccountNumber": "1002504780000351",
          "bookingDateTime": "2016-10-31T10:01:40+0000",
          "transactionAmount": -14.80,
          "transactionCurrency": "EUR",
          "merchant": "LE PARTHENON",
          "city": "PARIS 8",
          "creditDebitIndicator": "DBIT",
          "paymentMode": "SINGLE"
        }
      ]
    }
  }
}