{
  "request": {
    "method": "GET",
    "url": "/nobc-api/transaction-service/v1/transaction-overview/operations?page=1&size=20"
  },
  "response": {
    "status": 200,
    "headers": {
      "Content-Type": "application/json"
    },
    "jsonBody": {
      "_links": {
        "next": {
          "href": "http://server:port/nobc-api/account-service/v1/clients/{clientId}/accounts/currents/{accountId}/operations?page=2&size=20"
        }
      },
      "page": {
        "size": 20,
        "totalElements": 21,
        "totalPages": 2,
        "number": 1
      },
      "content": [
        {
          "id": "WBSCT3_O_58501245c5438a1c_0",
          "status": "SIGNED AND PROCESSED",
          "accountId": "FR7630788001002504780000351",
          "accountNumber": "00000000001",
          "bookingDateTime": "2016-08-17T11:16:43.233Z",
          "initiationDate": "2016-08-17T11:16:43.233Z",
          "counterpartyIban": "FR7630003001001111111111132",
          "counterpartyId": "FR7630003001001111111111132",
          "counterpartyLastName": "JONATHAN DACKO",
          "instructedAmount": 1809.35,
          "instructedCurrency": "EUR",
          "creditDebitIndicator": "DBIT",
          "description": "Pour cette folle nuit",
          "paymentMode": "SINGLE"
        },
        {
          "id": "WBSCT3_O_58501245c5438a1c_1",
          "status": "SIGNED NOT PROCESSED",
          "accountId": "FR7630788001002504780000351",
          "accountNumber": "00000000001",
          "bookingDateTime": "2016-09-17T11:16:42.222Z",
          "initiationDate": "2016-09-17T11:16:43.233Z",
          "counterpartyIban": "FR7629003001001111111111132",
          "counterpartyId": "FR7630009001001111114211132",
          "counterpartyLastName": "KARINE LA GOLLOC",
          "instructedAmount": 2000.00,
          "instructedCurrency": "EUR",
          "creditDebitIndicator": "DBIT",
          "description": "Appartement",
          "paymentMode": "SINGLE"
        }
      ]
    }
  }
}